{
    "key": "group_5e5fdae21230d",
    "title": "Configurações da Seção de Categorias Populares",
    "fields": [
        {
            "key": "field_5e5fdb09be972",
            "label": "Exibir seção",
            "name": "popular-categories-show",
            "type": "true_false",
            "instructions": "Se selecionado, exibe a seção.",
            "required": 0,
            "conditional_logic": 0,
            "wrapper": {
                "width": "",
                "class": "",
                "id": ""
            },
            "message": "",
            "default_value": 1,
            "ui": 0,
            "ui_on_text": "",
            "ui_off_text": ""
        },
        {
            "key": "field_5e5fdb31e78ce",
            "label": "Título",
            "name": "popular-categories-title",
            "type": "text",
            "instructions": "",
            "required": 0,
            "conditional_logic": 0,
            "wrapper": {
                "width": "",
                "class": "",
                "id": ""
            },
            "default_value": "Categorias Populares",
            "placeholder": "",
            "prepend": "",
            "append": "",
            "maxlength": ""
        },
        {
            "key": "field_5e5fdb53b5ca6",
            "label": "Descrição",
            "name": "popular-categories-description",
            "type": "text",
            "instructions": "",
            "required": 0,
            "conditional_logic": 0,
            "wrapper": {
                "width": "",
                "class": "",
                "id": ""
            },
            "default_value": "Veja as categorias mais acessadas",
            "placeholder": "",
            "prepend": "",
            "append": "",
            "maxlength": ""
        }
    ],
    "location": [
        [
            {
                "param": "options_page",
                "operator": "==",
                "value": "acf-options-secao-de-categorias-populares"
            }
        ]
    ],
    "menu_order": 0,
    "position": "normal",
    "style": "default",
    "label_placement": "top",
    "instruction_placement": "label",
    "hide_on_screen": "",
    "active": 1,
    "description": "",
    "modified": 1588789498
}